…
**What is mean total number of steps taken per day?**
1.Calculate the total number of steps taken per day


```r
steps_perday<-group_by(activity,date) %>% summarise(totalsteps = sum(steps),mean = mean(steps))
steps_perday
```

```
## # A tibble: 61 x 3
##    date       totalsteps   mean
##    <date>          <dbl>  <dbl>
##  1 2012-10-01         NA NA    
##  2 2012-10-02        126  0.438
##  3 2012-10-03      11352 39.4  
##  4 2012-10-04      12116 42.1  
##  5 2012-10-05      13294 46.2  
##  6 2012-10-06      15420 53.5  
##  7 2012-10-07      11015 38.2  
##  8 2012-10-08         NA NA    
##  9 2012-10-09      12811 44.5  
## 10 2012-10-10       9900 34.4  
## # ... with 51 more rows
```
…
3.Calculate and report the mean and median of the total number of steps taken per day


```r
group_by(activity,date) %>% summarise(mean = mean(steps),median = median(steps,na.rm = TRUE))
```

```
## # A tibble: 61 x 3
##    date         mean median
##    <date>      <dbl>  <dbl>
##  1 2012-10-01 NA         NA
##  2 2012-10-02  0.438      0
##  3 2012-10-03 39.4        0
##  4 2012-10-04 42.1        0
##  5 2012-10-05 46.2        0
##  6 2012-10-06 53.5        0
##  7 2012-10-07 38.2        0
##  8 2012-10-08 NA         NA
##  9 2012-10-09 44.5        0
## 10 2012-10-10 34.4        0
## # ... with 51 more rows
```
…
